\relax 
\@setckpt{abstract}{
\setcounter{page}{15}
\setcounter{equation}{0}
\setcounter{enumi}{0}
\setcounter{enumii}{0}
\setcounter{enumiii}{0}
\setcounter{enumiv}{0}
\setcounter{footnote}{0}
\setcounter{mpfootnote}{0}
\setcounter{part}{0}
\setcounter{chapter}{0}
\setcounter{section}{0}
\setcounter{subsection}{0}
\setcounter{subsubsection}{0}
\setcounter{paragraph}{0}
\setcounter{subparagraph}{0}
\setcounter{figure}{0}
\setcounter{table}{0}
\setcounter{parentequation}{0}
\setcounter{ABCIaux}{0}
\setcounter{ABCImax}{0}
\setcounter{Def}{0}
\setcounter{Axi}{0}
\setcounter{Conj}{0}
\setcounter{Lem}{0}
\setcounter{Theo}{0}
\setcounter{Prop}{0}
\setcounter{Cor}{0}
\setcounter{lips@count}{0}
\setcounter{lstnumber}{1}
\setcounter{subfigure}{0}
\setcounter{lofdepth}{1}
\setcounter{subtable}{0}
\setcounter{lotdepth}{1}
\setcounter{lstlisting}{0}
}
