\relax 
\catcode `"\active 
\citation{abnt-url-package=url}
\select@language{brazil}
\@writefile{toc}{\select@language{brazil}}
\@writefile{lof}{\select@language{brazil}}
\@writefile{lot}{\select@language{brazil}}
\citation{nvidia-2017}
\citation{nvidia-2017}
\@writefile{toc}{\contentsline {chapter}{Cap\'{\i }tulo~1---Introdu\IeC {\c c}\IeC {\~a}o}{1}}
\@writefile{lof}{\addvspace {10\p@ }}
\@writefile{lot}{\addvspace {10\p@ }}
\@writefile{toc}{\contentsline {section}{\numberline {1.1}Introdu\IeC {\c c}\IeC {\~a}o}{1}}
\@writefile{toc}{\contentsline {section}{\numberline {1.2}Motiva\IeC {\c c}\IeC {\~a}o}{3}}
\@writefile{toc}{\contentsline {section}{\numberline {1.3}Objetivos}{3}}
\@writefile{toc}{\contentsline {section}{\numberline {1.4}Organiza\IeC {\c c}\IeC {\~a}o do Trabalho}{4}}
\citation{winkler2006overview}
\citation{fellegi1969theory}
\citation{camargo2000reclink}
\citation{goez2006relacionamento}
\citation{pintocorrelaccao}
\citation{sehili2015privacy}
\citation{fellegi1969theory}
\@writefile{toc}{\contentsline {chapter}{Cap\'{\i }tulo~2---Fundamenta\IeC {\c c}\IeC {\~a}o te\IeC {\'o}rica}{5}}
\@writefile{lof}{\addvspace {10\p@ }}
\@writefile{lot}{\addvspace {10\p@ }}
\@writefile{toc}{\contentsline {section}{\numberline {2.1}Pareamento de Registros}{5}}
\newlabel{par-reg}{{2.1}{5}}
\citation{fellegi1969theory}
\@writefile{toc}{\contentsline {subsection}{\numberline {2.1.1}M\IeC {\'e}todo Probabil\IeC {\'\i }stico}{6}}
\@writefile{lof}{\contentsline {figure}{\numberline {2.1}{\ignorespaces Classifica\IeC {\c c}\IeC {\~a}o dos pares no processo de pareamento probabil\IeC {\'\i }stico de registros}}{6}}
\newlabel{classificacao-pares}{{2.1}{6}}
\citation{kim2007parallel}
\citation{kim2007parallel}
\citation{schnell2009privacy}
\@writefile{lof}{\contentsline {figure}{\numberline {2.2}{\ignorespaces Classifica\IeC {\c c}\IeC {\~a}o dos pares no processo de pareamento probabil\IeC {\'\i }stico de registros}}{7}}
\newlabel{classificacao-pares}{{2.2}{7}}
\@writefile{lof}{\contentsline {figure}{\numberline {2.3}{\ignorespaces Classifica\IeC {\c c}\IeC {\~a}o dos pares no processo de pareamento probabil\IeC {\'\i }stico de registros}}{7}}
\newlabel{classificacao-pares}{{2.3}{7}}
\citation{bloom1970space}
\citation{jain2005using}
\citation{dice1945measures}
\@writefile{toc}{\contentsline {subsection}{\numberline {2.1.2}Filtros de Bloom}{8}}
\@writefile{lof}{\contentsline {figure}{\numberline {2.4}{\ignorespaces Classifica\IeC {\c c}\IeC {\~a}o dos pares no processo de pareamento probabil\IeC {\'\i }stico de registros}}{8}}
\newlabel{classificacao-pares}{{2.4}{8}}
\@writefile{toc}{\contentsline {subsection}{\numberline {2.1.3}C\IeC {\'a}lculo de Similaridade e Classifica\IeC {\c c}\IeC {\~a}o}{8}}
\@writefile{lof}{\contentsline {figure}{\numberline {2.5}{\ignorespaces Classifica\IeC {\c c}\IeC {\~a}o dos pares no processo de pareamento probabil\IeC {\'\i }stico de registros}}{9}}
\newlabel{classificacao-pares}{{2.5}{9}}
\@writefile{toc}{\contentsline {section}{\numberline {2.2}Computa\IeC {\c c}\IeC {\~a}o de Alto Desempenho}{9}}
\citation{moore1998cramming}
\citation{vajda2011multi}
\citation{marr2002hyper}
\@writefile{toc}{\contentsline {subsection}{\numberline {2.2.1}Conceitos na Computa\IeC {\c c}\IeC {\~a}o Paralela}{10}}
\newlabel{comp-paralel}{{2.2.1}{10}}
\@writefile{lof}{\contentsline {figure}{\numberline {2.6}{\ignorespaces Vis\IeC {\~a}o gen\IeC {\'e}rica da organiza\IeC {\c c}\IeC {\~a}o de um processador \textit  {dual-core} com mem\IeC {\'o}ria \textit  {cache} interna e compartilhada}}{10}}
\newlabel{cpu_dual_core}{{2.6}{10}}
\citation{el2005advanced}
\citation{el2005advanced}
\citation{mpi}
\citation{ribeiro2013programaccao}
\citation{openmp}
\citation{openmp-examples}
\@writefile{toc}{\contentsline {subsection}{\numberline {2.2.2}Computa\IeC {\c c}\IeC {\~a}o para Multicore}{12}}
\@writefile{toc}{\contentsline {subsubsection}{\numberline {2.2.2.1}MPI}{12}}
\@writefile{toc}{\contentsline {subsubsection}{\numberline {2.2.2.2}OpenMP}{12}}
\@writefile{loa}{\contentsline {algorithm}{\numberline {1}{\ignorespaces Exemplo de soma de vetores utilizando a API OpenMP}}{13}}
\newlabel{alg:soma-openmp}{{1}{13}}
\citation{geforce-256}
\citation{boratto2016programaccao}
\citation{nvidia-2017}
\@writefile{lof}{\contentsline {figure}{\numberline {2.7}{\ignorespaces Modelo \textit  {fork-join} para paraleliza\IeC {\c c}\IeC {\~a}o, utilizado pelo OpenMP}}{14}}
\newlabel{threads_openmp}{{2.7}{14}}
\@writefile{toc}{\contentsline {subsection}{\numberline {2.2.3}Computa\IeC {\c c}\IeC {\~a}o para GPU}{14}}
\newlabel{comp-gpu}{{2.2.3}{14}}
\@writefile{lof}{\contentsline {figure}{\numberline {2.8}{\ignorespaces Arquitetura de uma CPU \textit  {vs} Arquitetura de uma GPU \cite  {nvidia-2017}}}{15}}
\newlabel{gpu-cpu}{{2.8}{15}}
\@writefile{toc}{\contentsline {subsubsection}{\numberline {2.2.3.1}CUDA}{15}}
\citation{nvidia-2017}
\@writefile{lof}{\contentsline {figure}{\numberline {2.9}{\ignorespaces Organiza\IeC {\c c}\IeC {\~a}o do \textit  {grid} e bloco \cite  {nvidia-2017}}}{16}}
\newlabel{grid-blocks}{{2.9}{16}}
\@writefile{loa}{\contentsline {algorithm}{\numberline {2}{\ignorespaces Exemplo de soma de vetores utilizando a API OpenMP}}{17}}
\newlabel{alg:soma-openmp}{{2}{17}}
\citation{maheswaran1999heterogeneous}
\citation{braun2001heterogeneous}
\citation{huang2015study}
\@writefile{toc}{\contentsline {subsection}{\numberline {2.2.4}Computa\IeC {\c c}\IeC {\~a}o heterog\IeC {\^e}nea}{18}}
\bibstyle{abntex2-alf}
\bibdata{abntex2-options,biblio}
\bibcite{bloom1970space}{Bloom 1970}
\bibcite{bloom1970space++EXPL}{Bloom}
\bibcite{bloom1970space++IMPL}{BLOOM}
\bibcite{bloom1970space++YEAR}{1970}
\bibcite{boratto2016programaccao}{Boratto, Computadores e Barreto}
\bibcite{boratto2016programaccao++EXPL}{Boratto, Computadores e Barreto}
\bibcite{boratto2016programaccao++IMPL}{BORATTO; COMPUTADORES; BARRETO}
\bibcite{boratto2016programaccao++YEAR}{}
\bibcite{braun2001heterogeneous}{Braun, Siegel e Maciejewski 2001}
\bibcite{braun2001heterogeneous++EXPL}{Braun, Siegel e Maciejewski}
\bibcite{braun2001heterogeneous++IMPL}{BRAUN; SIEGEL; MACIEJEWSKI}
\bibcite{braun2001heterogeneous++YEAR}{2001}
\bibcite{dice1945measures}{Dice 1945}
\bibcite{dice1945measures++EXPL}{Dice}
\bibcite{dice1945measures++IMPL}{DICE}
\bibcite{dice1945measures++YEAR}{1945}
\bibcite{el2005advanced}{El-Rewini e Abd-El-Barr 2005}
\bibcite{el2005advanced++EXPL}{El-Rewini e Abd-El-Barr}
\bibcite{el2005advanced++IMPL}{EL-REWINI; ABD-EL-BARR}
\bibcite{el2005advanced++YEAR}{2005}
\bibcite{fellegi1969theory}{Fellegi e Sunter 1969}
\bibcite{fellegi1969theory++EXPL}{Fellegi e Sunter}
\bibcite{fellegi1969theory++IMPL}{FELLEGI; SUNTER}
\bibcite{fellegi1969theory++YEAR}{1969}
\bibcite{geforce-256}{GeForce 256 1999}
\bibcite{geforce-256++EXPL}{GeForce\ldots  }
\bibcite{geforce-256++IMPL}{GEFORCE\ldots  }
\bibcite{geforce-256++YEAR}{1999}
\bibcite{goez2006relacionamento}{G{\'o}ez, Medronho e Coeli 2006}
\bibcite{goez2006relacionamento++EXPL}{G{\'o}ez, Medronho e Coeli}
\bibcite{goez2006relacionamento++IMPL}{G{\'O}EZ; MEDRONHO; COELI}
\bibcite{goez2006relacionamento++YEAR}{2006}
\bibcite{huang2015study}{Huang et al. 2015}
\bibcite{huang2015study++EXPL}{Huang et al.}
\bibcite{huang2015study++IMPL}{HUANG et al.}
\bibcite{huang2015study++YEAR}{2015}
\bibcite{jain2005using}{Jain, Dahlin e Tewari 2005}
\bibcite{jain2005using++EXPL}{Jain, Dahlin e Tewari}
\bibcite{jain2005using++IMPL}{JAIN; DAHLIN; TEWARI}
\bibcite{jain2005using++YEAR}{2005}
\bibcite{camargo2000reclink}{Jr e Coeli 2000}
\bibcite{camargo2000reclink++EXPL}{Jr e Coeli}
\bibcite{camargo2000reclink++IMPL}{JR; COELI}
\bibcite{camargo2000reclink++YEAR}{2000}
\bibcite{kim2007parallel}{Kim e Lee 2007}
\bibcite{kim2007parallel++EXPL}{Kim e Lee}
\bibcite{kim2007parallel++IMPL}{KIM; LEE}
\bibcite{kim2007parallel++YEAR}{2007}
\bibcite{maheswaran1999heterogeneous}{Maheswaran, Braun e Siegel 1999}
\bibcite{maheswaran1999heterogeneous++EXPL}{Maheswaran, Braun e Siegel}
\bibcite{maheswaran1999heterogeneous++IMPL}{MAHESWARAN; BRAUN; SIEGEL}
\bibcite{maheswaran1999heterogeneous++YEAR}{1999}
\bibcite{marr2002hyper}{Marr et al. 2002}
\bibcite{marr2002hyper++EXPL}{Marr et al.}
\bibcite{marr2002hyper++IMPL}{MARR et al.}
\bibcite{marr2002hyper++YEAR}{2002}
\bibcite{moore1998cramming}{Moore et al. 1998}
\bibcite{moore1998cramming++EXPL}{Moore et al.}
\bibcite{moore1998cramming++IMPL}{MOORE et al.}
\bibcite{moore1998cramming++YEAR}{1998}
\bibcite{mpi}{MPI. Message Passing Interface 2017}
\bibcite{mpi++EXPL}{MPI\ldots  }
\bibcite{mpi++IMPL}{MPI\ldots  }
\bibcite{mpi++YEAR}{2017}
\bibcite{nvidia-2017}{NVIDIA 2017}
\bibcite{nvidia-2017++EXPL}{NVIDIA}
\bibcite{nvidia-2017++IMPL}{NVIDIA}
\bibcite{nvidia-2017++YEAR}{2017}
\bibcite{openmp}{OpenMP 2015}
\bibcite{openmp++EXPL}{OpenMP}
\bibcite{openmp++IMPL}{OPENMP}
\bibcite{openmp++YEAR}{2015}
\bibcite{openmp-examples}{OpenMP-Examples 2015}
\bibcite{openmp-examples++EXPL}{OpenMP-Examples}
\bibcite{openmp-examples++IMPL}{OPENMP-EXAMPLES}
\bibcite{openmp-examples++YEAR}{2015}
\bibcite{pintocorrelaccao}{Pinto et al.}
\bibcite{pintocorrelaccao++EXPL}{Pinto et al.}
\bibcite{pintocorrelaccao++IMPL}{PINTO et al.}
\bibcite{pintocorrelaccao++YEAR}{}
\bibcite{ribeiro2013programaccao}{Ribeiro e Fernandes 2013}
\bibcite{ribeiro2013programaccao++EXPL}{Ribeiro e Fernandes}
\bibcite{ribeiro2013programaccao++IMPL}{RIBEIRO; FERNANDES}
\bibcite{ribeiro2013programaccao++YEAR}{2013}
\bibcite{schnell2009privacy}{Schnell, Bachteler e Reiher 2009}
\bibcite{schnell2009privacy++EXPL}{Schnell, Bachteler e Reiher}
\bibcite{schnell2009privacy++IMPL}{SCHNELL; BACHTELER; REIHER}
\bibcite{schnell2009privacy++YEAR}{2009}
\bibcite{sehili2015privacy}{Sehili et al. 2015}
\bibcite{sehili2015privacy++EXPL}{Sehili et al.}
\bibcite{sehili2015privacy++IMPL}{SEHILI et al.}
\bibcite{sehili2015privacy++YEAR}{2015}
\bibcite{vajda2011multi}{Vajda 2011}
\bibcite{vajda2011multi++EXPL}{Vajda}
\bibcite{vajda2011multi++IMPL}{VAJDA}
\bibcite{vajda2011multi++YEAR}{2011}
\bibcite{winkler2006overview}{Winkler 2006}
\bibcite{winkler2006overview++EXPL}{Winkler}
\bibcite{winkler2006overview++IMPL}{WINKLER}
\bibcite{winkler2006overview++YEAR}{2006}
\newlabel{LastPage}{{}{20}}
\xdef\lastpage@lastpage{20}
\gdef\lastpage@lastpageHy{}
